Debian GNU/Linux,apt,,alacritty,,,,,,,,,,,
Debian GNU/Linux,apt,,arc-theme,,,,,,,,,,,
Debian GNU/Linux,apt,,bind9-utils,,,,,,,,,,,
Debian GNU/Linux,apt,,calc,,,,,,,,,,,
Debian GNU/Linux,apt,,chrony,,,,,,,,,,,
Debian GNU/Linux,apt,,clang,,,,,,,,,,,
Debian GNU/Linux,apt,,curl,,,,,,,,,,,
Debian GNU/Linux,apt,,dbus,,,,,,,,,,,
Debian GNU/Linux,apt,,entr,,,,,,,,,,,
Debian GNU/Linux,apt,,exfat-fuse,,,,,,,,,,,
Debian GNU/Linux,apt,,firefox-esr,,,,,,,,,,,
Debian GNU/Linux,apt,,fontconfig,,,,,,,,,,,
Debian GNU/Linux,apt,,fzf,,,,,,,,,,,
Debian GNU/Linux,apt,,git,,,,,,,,,,,
Debian GNU/Linux,apt,,gnupg2,,,,,,,,,,,
Debian GNU/Linux,apt,,golang,,,,,,,,,,,
Debian GNU/Linux,apt,,jq,,,,,,,,,,,
Debian GNU/Linux,apt,,libc6-dev,,,,,,,,,,,
Debian GNU/Linux,apt,,libncurses-dev,,,,,,,,,,,
Debian GNU/Linux,apt,,libnfs-utils,,,,,,,,,,,
Debian GNU/Linux,apt,,libsdl2-dev,,,,,,,,,,,
Debian GNU/Linux,apt,,libsdl2-net-dev,,,,,,,,,,,
Debian GNU/Linux,apt,,libx11-dev,,,,,,,,,,,
Debian GNU/Linux,apt,,libxft-dev ,,,,,,,,,,,
Debian GNU/Linux,apt,,libxinerama-dev,,,,,,,,,,,
Debian GNU/Linux,apt,,libxrandr-dev,,,,,,,,,,,
Debian GNU/Linux,apt,,llvm,,,,,,,,,,,
Debian GNU/Linux,apt,,maim,,,,,,,,,,,
Debian GNU/Linux,apt,,make,,,,,,,,,,,
Debian GNU/Linux,apt,,mesa-utils,,,,,,,,,,,
Debian GNU/Linux,apt,,mpv,,,,,,,,,,,
Debian GNU/Linux,apt,,mupdf,,,,,,,,,,,
Debian GNU/Linux,apt,,neovim,,,,,,,,,,,
Debian GNU/Linux,apt,,net-tools,,,,,,,,,,,
Debian GNU/Linux,apt,,network-manager,,,,,,,,,,,
Debian GNU/Linux,apt,,nnn,,,,,,,,,,,
Debian GNU/Linux,apt,,papirus-icon-theme,,,,,,,,,,,
Debian GNU/Linux,apt,,parted,,,,,,,,,,,
Debian GNU/Linux,apt,,pkg-config,,,,,,,,,,,
Debian GNU/Linux,apt,,polkitd,,,,,,,,,,,
Debian GNU/Linux,apt,,pulseaudio,,,,,,,,,,,
Debian GNU/Linux,apt,,pulsemixer,,,,,,,,,,,
Debian GNU/Linux,apt,,rsync,,,,,,,,,,,
Debian GNU/Linux,apt,,scrot,,,,,,,,,,,
Debian GNU/Linux,apt,,sudo,,,,,,,,,,,
Debian GNU/Linux,apt,,sxiv,,,,,,,,,,,
Debian GNU/Linux,apt,,tar,,,,,,,,,,,
Debian GNU/Linux,apt,,telnet,,,,,,,,,,,
Debian GNU/Linux,apt,,tmux,,,,,,,,,,,
Debian GNU/Linux,apt,,tree,,,,,,,,,,,
Debian GNU/Linux,apt,,unzip,,,,,,,,,,,
Debian GNU/Linux,apt,,wget,,,,,,,,,,,
Debian GNU/Linux,apt,,wget,,,,,,,,,,,
Debian GNU/Linux,apt,,x11-utils,,,,,,,,,,,
Debian GNU/Linux,apt,,x11-utils,,,,,,,,,,,
Debian GNU/Linux,apt,,x11-xkb-utils,,,,,,,,,,,
Debian GNU/Linux,apt,,x11-xkb-utils,,,,,,,,,,,
Debian GNU/Linux,apt,,x11-xserver-utils,,,,,,,,,,,
Debian GNU/Linux,apt,,xclip,,,,,,,,,,,
Debian GNU/Linux,apt,,xorg,,,,,,,,,,,
Debian GNU/Linux,apt,,zsh,,,,,,,,,,,
Debian GNU/Linux,apt,--no-install-recommends,libxfce4ui-utils,,,,,,,,,,,
Debian GNU/Linux,apt,--no-install-recommends,thunar,,,,,,,,,,,
Debian GNU/Linux,apt,--no-install-recommends,xfce4-appfinder,,,,,,,,,,,
Debian GNU/Linux,apt,--no-install-recommends,xfce4-panel,,,,,,,,,,,
Debian GNU/Linux,apt,--no-install-recommends,xfce4-pulseaudio-plugin,,,,,,,,,,,
Debian GNU/Linux,apt,--no-install-recommends,xfce4-session,,,,,,,,,,,
Debian GNU/Linux,apt,--no-install-recommends,xfce4-settings,,,,,,,,,,,
Debian GNU/Linux,apt,--no-install-recommends,xfce4-whiskermenu-plugin,,,,,,,,,,,
Debian GNU/Linux,apt,--no-install-recommends,xfconf,,,,,,,,,,,
Debian GNU/Linux,apt,--no-install-recommends,xfdesktop4,,,,,,,,,,,
Debian GNU/Linux,apt,--no-install-recommends,xfwm4,,,,,,,,,,,
Debian GNU/Linux,apt,--no-install-recommends,xinit,,,,,,,,,,,
Debian GNU/Linux,service,,NetworkManager,,,,,,,,,,,
Debian GNU/Linux,service,,chrony,kvm,,,,,,,,,,
Debian GNU/Linux,service,,dbus,,,,,,,,,,,
Any,Make,,odin,,https://github.com/odin-lang/odin.git,src/not-mine,,,,,,,,
Any,dot-files,,xfce-dotfiles,,https://gitlab.com/ronaldr1985/xfce-dotfiles,repos,,,,,,,,
Any,font-link,,Iosevka Term,,https://github.com/be5invis/Iosevka/releases/download/v22.0.2/ttf-iosevka-term-22.0.2.zip,repos,,iosevka,,,,,,
Any,config-file,,chrony,,,,,,config-files/chrony.conf,/etc/chrony.conf,0644,root,root,
